CenterLanePathFar = {
// Left Wheel Trajectory
	{0.000, 0.005, 0.500, 50.000, 0.000, 0.010, 0.000, 1.063},
	{0.000, 0.010, 0.500, -0.000, 0.000, 0.010, 0.000, 1.063},
	{0.000, 0.023, 1.250, 75.000, 0.000, 0.010, 0.000, 1.063},
	{0.001, 0.040, 1.750, 50.000, 0.000, 0.010, 0.001, 1.063},
	{0.001, 0.062, 2.250, 50.000, 0.000, 0.010, 0.001, 1.063},
	{0.002, 0.090, 2.750, 50.000, 0.000, 0.010, 0.002, 1.063},
	{0.003, 0.122, 3.250, 50.000, 0.000, 0.010, 0.003, 1.063},
	{0.005, 0.160, 3.750, 50.000, 0.000, 0.010, 0.005, 1.063},
	{0.007, 0.202, 4.250, 50.000, 0.000, 0.010, 0.007, 1.063},
	{0.010, 0.250, 4.750, 50.000, 0.000, 0.010, 0.010, 1.063},
	{0.013, 0.302, 5.250, 50.000, 0.000, 0.010, 0.013, 1.063},
	{0.016, 0.360, 5.750, 50.000, 0.000, 0.010, 0.016, 1.063},
	{0.020, 0.422, 6.250, 50.000, 0.000, 0.010, 0.020, 1.063},
	{0.025, 0.490, 6.750, 50.000, 0.000, 0.010, 0.025, 1.063},
	{0.031, 0.563, 7.250, 50.000, 0.000, 0.010, 0.031, 1.063},
	{0.037, 0.640, 7.750, 50.000, 0.000, 0.010, 0.037, 1.063},
	{0.045, 0.720, 8.000, 25.000, 0.000, 0.010, 0.045, 1.063},
	{0.053, 0.800, 8.000, 0.000, 0.000, 0.010, 0.053, 1.063},
	{0.061, 0.880, 8.000, 0.000, 0.000, 0.010, 0.061, 1.063},
	{0.071, 0.960, 8.000, -0.000, 0.000, 0.010, 0.071, 1.063},
	{0.081, 1.040, 8.000, -0.000, 0.000, 0.010, 0.081, 1.063},
	{0.093, 1.120, 8.000, 0.000, 0.000, 0.010, 0.093, 1.063},
	{0.105, 1.200, 8.000, -0.000, 0.000, 0.010, 0.105, 1.063},
	{0.117, 1.280, 8.000, 0.000, 0.000, 0.010, 0.117, 1.063},
	{0.131, 1.360, 8.000, 0.000, 0.000, 0.010, 0.131, 1.063},
	{0.145, 1.440, 8.000, -0.000, 0.000, 0.010, 0.145, 1.063},
	{0.161, 1.520, 8.000, 0.000, 0.000, 0.010, 0.161, 1.063},
	{0.177, 1.600, 8.000, -0.000, 0.000, 0.010, 0.177, 1.063},
	{0.193, 1.680, 8.000, 0.000, 0.000, 0.010, 0.193, 1.063},
	{0.211, 1.760, 8.000, 0.000, 0.000, 0.010, 0.211, 1.063},
	{0.229, 1.840, 8.000, -0.000, 0.000, 0.010, 0.229, 1.063},
	{0.249, 1.920, 8.000, 0.000, 0.000, 0.010, 0.249, 1.063},
	{0.269, 2.000, 8.000, 0.000, 0.000, 0.010, 0.269, 1.063},
	{0.289, 2.080, 8.000, 0.000, 0.000, 0.010, 0.289, 1.063},
	{0.311, 2.160, 8.000, -0.000, 0.000, 0.010, 0.311, 1.063},
	{0.333, 2.240, 8.000, -0.000, 0.000, 0.010, 0.333, 1.063},
	{0.357, 2.320, 8.000, 0.000, 0.000, 0.010, 0.357, 1.063},
	{0.381, 2.400, 8.000, 0.000, 0.000, 0.010, 0.381, 1.063},
	{0.405, 2.480, 8.000, -0.000, 0.000, 0.010, 0.405, 1.063},
	{0.431, 2.560, 8.000, 0.000, 0.000, 0.010, 0.431, 1.063},
	{0.457, 2.640, 8.000, 0.000, 0.000, 0.010, 0.457, 1.063},
	{0.485, 2.720, 8.000, -0.000, 0.000, 0.010, 0.485, 1.063},
	{0.513, 2.800, 8.000, -0.000, 0.000, 0.010, 0.513, 1.063},
	{0.541, 2.880, 8.000, -0.000, 0.000, 0.010, 0.541, 1.063},
	{0.571, 2.960, 8.000, 0.000, 0.000, 0.010, 0.571, 1.063},
	{0.601, 3.040, 8.000, -0.000, 0.000, 0.010, 0.601, 1.063},
	{0.633, 3.120, 8.000, 0.000, 0.000, 0.010, 0.633, 1.063},
	{0.665, 3.200, 8.000, 0.000, 0.000, 0.010, 0.665, 1.063},
	{0.697, 3.280, 8.000, -0.000, 0.000, 0.010, 0.697, 1.063},
	{0.731, 3.360, 8.000, 0.000, 0.000, 0.010, 0.731, 1.063},
	{0.765, 3.440, 8.000, -0.000, 0.000, 0.010, 0.765, 1.063},
	{0.801, 3.520, 8.000, -0.000, 0.000, 0.010, 0.801, 1.063},
	{0.837, 3.600, 8.000, 0.000, 0.000, 0.010, 0.837, 1.063},
	{0.873, 3.680, 8.000, -0.000, 0.000, 0.010, 0.873, 1.063},
	{0.911, 3.760, 8.000, -0.000, 0.000, 0.010, 0.911, 1.063},
	{0.949, 3.840, 8.000, 0.000, 0.000, 0.010, 0.949, 1.063},
	{0.989, 3.920, 8.000, 0.000, 0.000, 0.010, 0.989, 1.063},
	{1.029, 4.000, 8.000, 0.000, 0.000, 0.010, 1.029, 1.063},
	{1.069, 4.080, 8.000, -0.000, 0.000, 0.010, 1.069, 1.063},
	{1.111, 4.160, 8.000, 0.000, 0.000, 0.010, 1.111, 1.063},
	{1.153, 4.240, 8.000, -0.000, 0.000, 0.010, 1.153, 1.063},
	{1.197, 4.320, 8.000, 0.000, 0.000, 0.010, 1.197, 1.063},
	{1.241, 4.400, 8.000, 0.000, 0.000, 0.010, 1.241, 1.063},
	{1.285, 4.480, 8.000, -0.000, 0.000, 0.010, 1.285, 1.063},
	{1.331, 4.560, 8.000, 0.000, 0.000, 0.010, 1.331, 1.063},
	{1.377, 4.640, 8.000, -0.000, 0.000, 0.010, 1.377, 1.063},
	{1.425, 4.720, 8.000, 0.000, 0.000, 0.010, 1.425, 1.063},
	{1.473, 4.800, 8.000, 0.000, 0.000, 0.010, 1.473, 1.063},
	{1.521, 4.880, 8.000, -0.000, 0.000, 0.010, 1.521, 1.063},
	{1.571, 4.960, 8.000, 0.000, 0.000, 0.010, 1.571, 1.063},
	{1.621, 5.040, 8.000, -0.000, 0.000, 0.010, 1.621, 1.063},
	{1.673, 5.120, 8.000, 0.000, 0.000, 0.010, 1.673, 1.063},
	{1.725, 5.200, 8.000, 0.000, 0.000, 0.010, 1.725, 1.063},
	{1.777, 5.280, 8.000, -0.000, 0.000, 0.010, 1.777, 1.063},
	{1.831, 5.360, 8.000, 0.000, 0.000, 0.010, 1.831, 1.063},
	{1.885, 5.440, 8.000, -0.000, 0.000, 0.010, 1.885, 1.063},
	{1.941, 5.520, 8.000, 0.000, 0.000, 0.010, 1.941, 1.063},
	{1.997, 5.600, 8.000, -0.000, 0.000, 0.010, 1.997, 1.063},
	{2.053, 5.680, 8.000, 0.000, 0.000, 0.010, 2.053, 1.063},
	{2.111, 5.760, 8.000, -0.000, 0.000, 0.010, 2.111, 1.063},
	{2.169, 5.840, 8.000, 0.000, 0.000, 0.010, 2.169, 1.063},
	{2.229, 5.920, 8.000, 0.000, 0.000, 0.010, 2.229, 1.063},
	{2.289, 6.000, 8.000, -0.000, 0.000, 0.010, 2.289, 1.063},
	{2.349, 6.080, 8.000, 0.000, 0.000, 0.010, 2.349, 1.063},
	{2.411, 6.160, 8.000, 0.000, 0.000, 0.010, 2.411, 1.063},
	{2.473, 6.240, 8.000, 0.000, 0.000, 0.010, 2.473, 1.063},
	{2.537, 6.320, 8.000, -0.000, 0.000, 0.010, 2.537, 1.063},
	{2.601, 6.400, 8.000, 0.000, 0.000, 0.010, 2.601, 1.063},
	{2.665, 6.480, 8.000, -0.000, 0.000, 0.010, 2.665, 1.063},
	{2.731, 6.560, 8.000, 0.000, 0.000, 0.010, 2.731, 1.063},
	{2.797, 6.640, 8.000, 0.000, 0.000, 0.010, 2.797, 1.063},
	{2.865, 6.720, 8.000, 0.000, 0.000, 0.010, 2.865, 1.063},
	{2.933, 6.800, 8.000, 0.000, 0.000, 0.010, 2.933, 1.063},
	{3.001, 6.880, 8.000, -0.000, 0.000, 0.010, 3.001, 1.063},
	{3.071, 6.960, 8.000, 0.000, 0.000, 0.010, 3.071, 1.063},
	{3.141, 7.040, 8.000, -0.000, 0.000, 0.010, 3.141, 1.063},
	{3.213, 7.120, 8.000, 0.000, 0.000, 0.010, 3.213, 1.063},
	{3.285, 7.200, 8.000, -0.000, 0.000, 0.010, 3.285, 1.063},
	{3.357, 7.280, 8.000, 0.000, 0.000, 0.010, 3.357, 1.063},
	{3.431, 7.360, 8.000, -0.000, 0.000, 0.010, 3.431, 1.063},
	{3.505, 7.440, 8.000, 0.000, 0.000, 0.010, 3.505, 1.063},
	{3.581, 7.520, 8.000, 0.000, 0.000, 0.010, 3.581, 1.063},
	{3.657, 7.600, 8.000, -0.000, 0.000, 0.010, 3.657, 1.063},
	{3.733, 7.680, 8.000, 0.000, 0.000, 0.010, 3.733, 1.063},
	{3.811, 7.760, 8.000, -0.000, 0.000, 0.010, 3.811, 1.063},
	{3.889, 7.840, 8.000, 0.000, 0.000, 0.010, 3.889, 1.063},
	{3.969, 7.920, 8.000, -0.000, 0.000, 0.010, 3.969, 1.063},
	{4.049, 8.000, 8.000, 0.000, 0.000, 0.010, 4.049, 1.063},
	{4.129, 8.080, 8.000, -0.000, 0.000, 0.010, 4.129, 1.063},
	{4.211, 8.160, 8.000, 0.000, 0.000, 0.010, 4.211, 1.063},
	{4.293, 8.240, 8.000, -0.000, 0.000, 0.010, 4.293, 1.063},
	{4.377, 8.320, 8.000, 0.000, 0.000, 0.010, 4.377, 1.063},
	{4.461, 8.400, 8.000, 0.000, 0.000, 0.010, 4.461, 1.063},
	{4.545, 8.480, 8.000, -0.000, 0.000, 0.010, 4.545, 1.063},
	{4.631, 8.560, 8.000, 0.000, 0.000, 0.010, 4.631, 1.063},
	{4.717, 8.640, 8.000, -0.000, 0.000, 0.010, 4.717, 1.063},
	{4.805, 8.720, 8.000, -0.000, 0.000, 0.010, 4.805, 1.063},
	{4.893, 8.800, 8.000, 0.000, 0.000, 0.010, 4.893, 1.063},
	{4.981, 8.880, 8.000, -0.000, 0.000, 0.010, 4.981, 1.063},
	{5.071, 8.960, 8.000, 0.000, 0.000, 0.010, 5.071, 1.063},
	{5.161, 9.040, 8.000, -0.000, 0.000, 0.010, 5.161, 1.063},
	{5.253, 9.120, 8.000, 0.000, 0.000, 0.010, 5.253, 1.063},
	{5.345, 9.200, 8.000, -0.000, 0.000, 0.010, 5.345, 1.063},
	{5.437, 9.280, 8.000, 0.000, 0.000, 0.010, 5.437, 1.063},
	{5.531, 9.360, 8.000, 0.000, 0.000, 0.010, 5.531, 1.063},
	{5.625, 9.438, 7.750, -25.000, 0.000, 0.010, 5.625, 1.063},
	{5.720, 9.510, 7.250, -50.000, 0.000, 0.010, 5.720, 1.063},
	{5.816, 9.578, 6.750, -50.000, 0.000, 0.010, 5.816, 1.063},
	{5.913, 9.640, 6.250, -50.000, 0.000, 0.010, 5.913, 1.063},
	{6.010, 9.698, 5.750, -50.000, 0.000, 0.010, 6.010, 1.063},
	{6.107, 9.750, 5.250, -50.000, 0.000, 0.010, 6.107, 1.063},
	{6.205, 9.798, 4.750, -50.000, 0.000, 0.010, 6.205, 1.063},
	{6.304, 9.840, 4.250, -50.000, 0.000, 0.010, 6.304, 1.063},
	{6.402, 9.878, 3.750, -50.000, 0.000, 0.010, 6.402, 1.063},
	{6.501, 9.910, 3.250, -50.000, 0.000, 0.010, 6.501, 1.063},
	{6.601, 9.938, 2.750, -50.000, 0.000, 0.010, 6.601, 1.063},
	{6.700, 9.960, 2.250, -50.000, 0.000, 0.010, 6.700, 1.063},
	{6.800, 9.978, 1.750, -50.000, 0.000, 0.010, 6.800, 1.063},
	{6.900, 9.990, 1.250, -50.000, 0.000, 0.010, 6.900, 1.063},
	{7.000, 9.998, 0.750, -50.000, 0.000, 0.010, 7.000, 1.063},
	{7.099, 9.893, -10.490, -1123.958, 0.001, 0.010, 7.099, 1.063},
	{7.196, 9.684, -20.843, -1035.374, 0.004, 0.010, 7.196, 1.063},
	{7.291, 9.483, -20.099, 74.416, 0.009, 0.010, 7.291, 1.063},
	{7.383, 9.287, -19.600, 49.930, 0.016, 0.010, 7.383, 1.064},
	{7.474, 9.094, -19.308, 29.171, 0.024, 0.010, 7.474, 1.066},
	{7.563, 8.902, -19.192, 11.619, 0.034, 0.010, 7.563, 1.069},
	{7.651, 8.710, -19.222, -3.032, 0.047, 0.010, 7.650, 1.072},
	{7.736, 8.516, -19.371, -14.901, 0.061, 0.010, 7.735, 1.077},
	{7.819, 8.320, -19.611, -23.926, 0.076, 0.010, 7.818, 1.083},
	{7.900, 8.121, -19.909, -29.881, 0.094, 0.010, 7.899, 1.089},
	{7.979, 7.919, -20.233, -32.380, 0.114, 0.010, 7.978, 1.098},
	{8.056, 7.713, -20.542, -30.894, 0.135, 0.010, 8.055, 1.107},
	{8.131, 7.505, -20.790, -24.782, 0.159, 0.010, 8.129, 1.118},
	{8.204, 7.296, -20.923, -13.344, 0.184, 0.010, 8.201, 1.131},
	{8.275, 7.087, -20.882, 4.104, 0.211, 0.010, 8.270, 1.145},
	{8.344, 6.881, -20.601, 28.100, 0.241, 0.010, 8.337, 1.160},
	{8.411, 6.681, -20.012, 58.882, 0.272, 0.010, 8.402, 1.177},
	{8.476, 6.491, -19.050, 96.202, 0.305, 0.010, 8.464, 1.195},
	{8.539, 6.314, -17.659, 139.133, 0.340, 0.010, 8.524, 1.215},
	{8.601, 6.156, -15.800, 185.921, 0.376, 0.010, 8.582, 1.237},
	{8.661, 6.022, -13.460, 233.945, 0.413, 0.010, 8.637, 1.260},
	{8.720, 5.915, -10.699, 276.159, 0.452, 0.010, 8.691, 1.285},
	{8.778, 5.838, -7.682, 301.686, 0.491, 0.010, 8.743, 1.311},
	{8.836, 5.793, -4.471, 321.141, 0.530, 0.010, 8.794, 1.340},
	{8.894, 5.782, -1.097, 337.326, 0.570, 0.010, 8.843, 1.370},
	{8.952, 5.805, 2.272, 336.946, 0.609, 0.010, 8.891, 1.402},
	{9.011, 5.859, 5.472, 319.951, 0.647, 0.010, 8.939, 1.437},
	{9.070, 5.943, 8.353, 288.133, 0.684, 0.010, 8.985, 1.473},
	{9.131, 6.051, 10.801, 244.769, 0.720, 0.010, 9.031, 1.512},
	{9.192, 6.178, 12.741, 194.000, 0.755, 0.010, 9.077, 1.554},
	{9.256, 6.320, 14.142, 140.132, 0.787, 0.010, 9.123, 1.598},
	{9.320, 6.470, 15.012, 87.028, 0.818, 0.010, 9.167, 1.645},
	{9.387, 6.624, 15.389, 37.714, 0.847, 0.010, 9.212, 1.694},
	{9.454, 6.777, 15.331, -5.789, 0.874, 0.010, 9.256, 1.745},
	{9.524, 6.926, 14.907, -42.427, 0.898, 0.010, 9.300, 1.799},
	{9.594, 7.068, 14.188, -71.953, 0.921, 0.010, 9.343, 1.854},
	{9.666, 7.200, 13.241, -94.704, 0.942, 0.010, 9.386, 1.912},
	{9.739, 7.322, 12.176, -106.428, 0.961, 0.010, 9.429, 1.972},
	{9.814, 7.434, 11.205, -97.164, 0.978, 0.010, 9.471, 2.033},
	{9.889, 7.538, 10.338, -86.640, 0.994, 0.010, 9.512, 2.096},
	{9.966, 7.632, 9.466, -87.246, 1.008, 0.010, 9.554, 2.160},
	{10.043, 7.718, 8.610, -85.629, 1.020, 0.010, 9.594, 2.226},
	{10.121, 7.796, 7.785, -82.446, 1.031, 0.010, 9.635, 2.292},
	{10.199, 7.866, 7.003, -78.219, 1.040, 0.010, 9.675, 2.360},
	{10.279, 7.929, 6.269, -73.353, 1.048, 0.010, 9.715, 2.429},
	{10.358, 7.985, 5.588, -68.153, 1.055, 0.010, 9.754, 2.498},
	{10.439, 8.034, 4.959, -62.846, 1.060, 0.010, 9.794, 2.568},
	{10.520, 8.078, 4.383, -57.596, 1.065, 0.010, 9.833, 2.639},
	{10.601, 8.117, 3.858, -52.520, 1.068, 0.010, 9.872, 2.710},
	{10.682, 8.151, 3.381, -47.696, 1.070, 0.010, 9.912, 2.781},
	{10.764, 8.180, 2.950, -43.178, 1.071, 0.010, 9.951, 2.853},
	{10.846, 8.206, 2.560, -39.001, 1.071, 0.010, 9.990, 2.925},
	{10.928, 8.228, 2.208, -35.184, 1.070, 0.010, 10.030, 2.997},
	{11.011, 8.247, 1.890, -31.739, 1.069, 0.010, 10.069, 3.069},
	{11.094, 8.263, 1.604, -28.674, 1.066, 0.010, 10.109, 3.142},
	{11.176, 8.276, 1.344, -25.989, 1.062, 0.010, 10.149, 3.214},
	{11.259, 8.287, 1.107, -23.686, 1.058, 0.010, 10.190, 3.286},
	{11.342, 8.296, 0.889, -21.766, 1.053, 0.010, 10.231, 3.359},
	{11.425, 8.303, 0.687, -20.227, 1.047, 0.010, 10.272, 3.431},
	{11.508, 8.308, 0.496, -19.071, 1.040, 0.010, 10.314, 3.502},
	{11.591, 8.311, 0.313, -18.299, 1.032, 0.010, 10.356, 3.574},
	{11.674, 8.313, 0.134, -17.911, 1.024, 0.010, 10.399, 3.645},
	{11.758, 8.312, -0.045, -17.906, 1.015, 0.010, 10.443, 3.716},
	{11.841, 8.310, -0.228, -18.283, 1.005, 0.010, 10.487, 3.786},
	{11.924, 8.306, -0.418, -19.039, 0.994, 0.010, 10.532, 3.856},
	{12.007, 8.299, -0.620, -20.166, 0.983, 0.010, 10.577, 3.925},
	{12.090, 8.291, -0.836, -21.652, 0.971, 0.010, 10.624, 3.994},
	{12.172, 8.280, -1.071, -23.481, 0.958, 0.010, 10.671, 4.062},
	{12.255, 8.267, -1.327, -25.627, 0.945, 0.010, 10.719, 4.130},
	{12.338, 8.251, -1.608, -28.059, 0.931, 0.010, 10.768, 4.196},
	{12.420, 8.232, -1.915, -30.736, 0.917, 0.010, 10.817, 4.262},
	{12.502, 8.209, -2.252, -33.608, 0.902, 0.010, 10.868, 4.327},
	{12.584, 8.183, -2.618, -36.615, 0.886, 0.010, 10.919, 4.390},
	{12.665, 8.153, -3.015, -39.691, 0.871, 0.010, 10.971, 4.453},
	{12.747, 8.119, -3.442, -42.758, 0.854, 0.010, 11.024, 4.515},
	{12.827, 8.080, -3.900, -45.736, 0.837, 0.010, 11.077, 4.575},
	{12.908, 8.036, -4.385, -48.539, 0.820, 0.010, 11.132, 4.635},
	{12.988, 7.987, -4.896, -51.082, 0.803, 0.010, 11.187, 4.692},
	{13.067, 7.932, -5.429, -53.280, 0.785, 0.010, 11.242, 4.749},
	{13.146, 7.873, -5.979, -55.057, 0.767, 0.010, 11.298, 4.804},
	{13.224, 7.807, -6.543, -56.347, 0.750, 0.010, 11.355, 4.858},
	{13.301, 7.736, -7.114, -57.094, 0.731, 0.010, 11.412, 4.910},
	{13.378, 7.659, -7.686, -57.262, 0.713, 0.010, 11.470, 4.961},
	{13.453, 7.577, -8.254, -56.830, 0.695, 0.010, 11.527, 5.010},
	{13.528, 7.489, -8.812, -55.797, 0.677, 0.010, 11.585, 5.057},
	{13.602, 7.395, -9.354, -54.181, 0.660, 0.010, 11.643, 5.103},
	{13.675, 7.296, -9.874, -52.018, 0.642, 0.010, 11.701, 5.147},
	{13.747, 7.193, -10.368, -49.358, 0.624, 0.010, 11.759, 5.190},
	{13.818, 7.084, -10.831, -46.267, 0.607, 0.010, 11.817, 5.231},
	{13.888, 6.972, -11.259, -42.819, 0.590, 0.010, 11.875, 5.270},
	{13.956, 6.855, -11.650, -39.093, 0.574, 0.010, 11.932, 5.308},
	{14.024, 6.735, -12.001, -35.171, 0.558, 0.010, 11.989, 5.344},
	{14.090, 6.612, -12.313, -31.134, 0.542, 0.010, 12.045, 5.378},
	{14.155, 6.486, -12.583, -27.059, 0.527, 0.010, 12.101, 5.412},
	{14.218, 6.358, -12.814, -23.017, 0.512, 0.010, 12.156, 5.443},
	{14.280, 6.228, -13.004, -19.069, 0.498, 0.010, 12.211, 5.473},
	{14.341, 6.097, -13.157, -15.267, 0.484, 0.010, 12.265, 5.502},
	{14.401, 5.964, -13.273, -11.653, 0.470, 0.010, 12.318, 5.529},
	{14.459, 5.830, -13.356, -8.261, 0.457, 0.010, 12.370, 5.555},
	{14.516, 5.696, -13.407, -5.112, 0.445, 0.010, 12.421, 5.580},
	{14.572, 5.562, -13.429, -2.221, 0.433, 0.010, 12.471, 5.604},
	{14.626, 5.428, -13.425, 0.405, 0.422, 0.010, 12.521, 5.626},
	{14.679, 5.294, -13.398, 2.767, 0.411, 0.010, 12.569, 5.648},
	{14.731, 5.160, -13.349, 4.871, 0.400, 0.010, 12.617, 5.668},
	{14.781, 5.027, -13.282, 6.725, 0.391, 0.010, 12.663, 5.687},
	{14.830, 4.895, -13.198, 8.344, 0.381, 0.010, 12.708, 5.706},
	{14.878, 4.764, -13.101, 9.742, 0.372, 0.010, 12.753, 5.723},
	{14.924, 4.634, -12.991, 10.937, 0.364, 0.010, 12.796, 5.740},
	{14.969, 4.506, -12.872, 11.946, 0.356, 0.010, 12.838, 5.756},
	{15.013, 4.378, -12.744, 12.785, 0.348, 0.010, 12.879, 5.771},
	{15.055, 4.252, -12.609, 13.473, 0.341, 0.010, 12.919, 5.785},
	{15.097, 4.127, -12.469, 14.027, 0.335, 0.010, 12.958, 5.799},
	{15.137, 4.004, -12.325, 14.460, 0.328, 0.010, 12.996, 5.812},
	{15.176, 3.882, -12.177, 14.789, 0.323, 0.010, 13.033, 5.825},
	{15.213, 3.762, -12.026, 15.025, 0.317, 0.010, 13.068, 5.836},
	{15.250, 3.643, -11.875, 15.183, 0.312, 0.010, 13.103, 5.848},
	{15.285, 3.526, -11.722, 15.271, 0.307, 0.010, 13.137, 5.858},
	{15.319, 3.411, -11.569, 15.299, 0.303, 0.010, 13.169, 5.869},
	{15.352, 3.296, -11.416, 15.277, 0.299, 0.010, 13.201, 5.878},
	{15.384, 3.184, -11.264, 15.210, 0.295, 0.010, 13.231, 5.888},
	{15.414, 3.073, -11.113, 15.105, 0.291, 0.010, 13.260, 5.897},
	{15.444, 2.963, -10.963, 14.968, 0.288, 0.010, 13.289, 5.905},
	{15.473, 2.855, -10.815, 14.802, 0.285, 0.010, 13.316, 5.913},
	{15.500, 2.748, -10.669, 14.611, 0.283, 0.010, 13.343, 5.921},
	{15.527, 2.643, -10.525, 14.398, 0.280, 0.010, 13.368, 5.928},
	{15.552, 2.539, -10.384, 14.165, 0.278, 0.010, 13.392, 5.935},
	{15.576, 2.437, -10.244, 13.913, 0.276, 0.010, 13.416, 5.942},
	{15.600, 2.336, -10.108, 13.645, 0.274, 0.010, 13.438, 5.948},
	{15.622, 2.236, -9.974, 13.360, 0.272, 0.010, 13.460, 5.954},
	{15.643, 2.137, -9.844, 13.059, 0.271, 0.010, 13.480, 5.960},
	{15.664, 2.040, -9.716, 12.743, 0.269, 0.010, 13.500, 5.965},
	{15.683, 1.944, -9.592, 12.411, 0.268, 0.010, 13.519, 5.971},
	{15.702, 1.850, -9.472, 12.064, 0.267, 0.010, 13.537, 5.975},
	{15.719, 1.756, -9.355, 11.701, 0.266, 0.010, 13.554, 5.980},
	{15.736, 1.664, -9.241, 11.321, 0.266, 0.010, 13.570, 5.984},
	{15.752, 1.572, -9.132, 10.925, 0.265, 0.010, 13.585, 5.989},
	{15.766, 1.482, -9.027, 10.513, 0.264, 0.010, 13.599, 5.992},
	{15.780, 1.393, -8.926, 10.083, 0.264, 0.010, 13.613, 5.996},
	{15.793, 1.304, -8.830, 9.636, 0.263, 0.010, 13.625, 6.000},
	{15.806, 1.217, -8.738, 9.172, 0.263, 0.010, 13.637, 6.003},
	{15.817, 1.131, -8.651, 8.691, 0.263, 0.010, 13.648, 6.006},
	{15.827, 1.045, -8.569, 8.193, 0.263, 0.010, 13.658, 6.008},
	{15.837, 0.960, -8.492, 7.678, 0.262, 0.010, 13.667, 6.011},
	{15.846, 0.876, -8.421, 7.147, 0.262, 0.010, 13.676, 6.013},
	{15.854, 0.792, -8.355, 6.599, 0.262, 0.010, 13.683, 6.015},
	{15.861, 0.709, -8.295, 6.037, 0.262, 0.010, 13.690, 6.017},
	{15.867, 0.627, -8.177, 11.768, 0.262, 0.010, 13.696, 6.019},
	{15.872, 0.549, -7.814, 36.336, 0.262, 0.010, 13.702, 6.020},
	{15.877, 0.477, -7.269, 54.427, 0.262, 0.010, 13.706, 6.021},
	{15.881, 0.409, -6.733, 53.605, 0.262, 0.010, 13.710, 6.022},
	{15.885, 0.347, -6.204, 52.888, 0.262, 0.010, 13.713, 6.023},
	{15.888, 0.290, -5.682, 52.271, 0.262, 0.010, 13.716, 6.024},
	{15.890, 0.239, -5.164, 51.746, 0.262, 0.010, 13.719, 6.025},
	{15.892, 0.192, -4.651, 51.308, 0.262, 0.010, 13.720, 6.025},
	{15.894, 0.151, -4.142, 50.950, 0.262, 0.010, 13.722, 6.025},
	{15.895, 0.114, -3.635, 50.663, 0.262, 0.010, 13.723, 6.026},
	{15.896, 0.083, -3.131, 50.441, 0.262, 0.010, 13.724, 6.026},
	{15.896, 0.057, -2.628, 50.275, 0.262, 0.010, 13.724, 6.026},
	{15.896, 0.036, -2.126, 50.157, 0.262, 0.010, 13.725, 6.026},
	{15.897, 0.019, -1.626, 50.079, 0.262, 0.010, 13.725, 6.026},
	{15.897, 0.008, -1.125, 50.033, 0.262, 0.010, 13.725, 6.026},
	{15.897, 0.002, -0.625, 50.010, 0.262, 0.010, 13.725, 6.026},
	{15.897, 0.000, -0.188, 43.756, 0.262, 0.010, 13.725, 6.026}
// Right Wheel Trajectory
	{0.000, 0.005, 0.500, 50.000, 0.000, 0.010, 0.000, -1.063},
	{0.000, 0.010, 0.500, -0.000, 0.000, 0.010, 0.000, -1.063},
	{0.000, 0.023, 1.250, 75.000, 0.000, 0.010, 0.000, -1.063},
	{0.001, 0.040, 1.750, 50.000, 0.000, 0.010, 0.001, -1.063},
	{0.001, 0.062, 2.250, 50.000, 0.000, 0.010, 0.001, -1.063},
	{0.002, 0.090, 2.750, 50.000, 0.000, 0.010, 0.002, -1.063},
	{0.003, 0.122, 3.250, 50.000, 0.000, 0.010, 0.003, -1.063},
	{0.005, 0.160, 3.750, 50.000, 0.000, 0.010, 0.005, -1.063},
	{0.007, 0.202, 4.250, 50.000, 0.000, 0.010, 0.007, -1.063},
	{0.010, 0.250, 4.750, 50.000, 0.000, 0.010, 0.010, -1.063},
	{0.013, 0.302, 5.250, 50.000, 0.000, 0.010, 0.013, -1.063},
	{0.016, 0.360, 5.750, 50.000, 0.000, 0.010, 0.016, -1.063},
	{0.020, 0.422, 6.250, 50.000, 0.000, 0.010, 0.020, -1.063},
	{0.025, 0.490, 6.750, 50.000, 0.000, 0.010, 0.025, -1.063},
	{0.031, 0.563, 7.250, 50.000, 0.000, 0.010, 0.031, -1.063},
	{0.037, 0.640, 7.750, 50.000, 0.000, 0.010, 0.037, -1.063},
	{0.045, 0.720, 8.000, 25.000, 0.000, 0.010, 0.045, -1.063},
	{0.053, 0.800, 8.000, 0.000, 0.000, 0.010, 0.053, -1.063},
	{0.061, 0.880, 8.000, 0.000, 0.000, 0.010, 0.061, -1.063},
	{0.071, 0.960, 8.000, -0.000, 0.000, 0.010, 0.071, -1.063},
	{0.081, 1.040, 8.000, -0.000, 0.000, 0.010, 0.081, -1.063},
	{0.093, 1.120, 8.000, 0.000, 0.000, 0.010, 0.093, -1.063},
	{0.105, 1.200, 8.000, -0.000, 0.000, 0.010, 0.105, -1.063},
	{0.117, 1.280, 8.000, 0.000, 0.000, 0.010, 0.117, -1.063},
	{0.131, 1.360, 8.000, 0.000, 0.000, 0.010, 0.131, -1.063},
	{0.145, 1.440, 8.000, -0.000, 0.000, 0.010, 0.145, -1.063},
	{0.161, 1.520, 8.000, 0.000, 0.000, 0.010, 0.161, -1.063},
	{0.177, 1.600, 8.000, -0.000, 0.000, 0.010, 0.177, -1.063},
	{0.193, 1.680, 8.000, 0.000, 0.000, 0.010, 0.193, -1.063},
	{0.211, 1.760, 8.000, 0.000, 0.000, 0.010, 0.211, -1.063},
	{0.229, 1.840, 8.000, -0.000, 0.000, 0.010, 0.229, -1.063},
	{0.249, 1.920, 8.000, 0.000, 0.000, 0.010, 0.249, -1.063},
	{0.269, 2.000, 8.000, 0.000, 0.000, 0.010, 0.269, -1.063},
	{0.289, 2.080, 8.000, 0.000, 0.000, 0.010, 0.289, -1.063},
	{0.311, 2.160, 8.000, -0.000, 0.000, 0.010, 0.311, -1.063},
	{0.333, 2.240, 8.000, -0.000, 0.000, 0.010, 0.333, -1.063},
	{0.357, 2.320, 8.000, 0.000, 0.000, 0.010, 0.357, -1.063},
	{0.381, 2.400, 8.000, 0.000, 0.000, 0.010, 0.381, -1.063},
	{0.405, 2.480, 8.000, -0.000, 0.000, 0.010, 0.405, -1.063},
	{0.431, 2.560, 8.000, 0.000, 0.000, 0.010, 0.431, -1.063},
	{0.457, 2.640, 8.000, 0.000, 0.000, 0.010, 0.457, -1.063},
	{0.485, 2.720, 8.000, -0.000, 0.000, 0.010, 0.485, -1.063},
	{0.513, 2.800, 8.000, -0.000, 0.000, 0.010, 0.513, -1.063},
	{0.541, 2.880, 8.000, -0.000, 0.000, 0.010, 0.541, -1.063},
	{0.571, 2.960, 8.000, 0.000, 0.000, 0.010, 0.571, -1.063},
	{0.601, 3.040, 8.000, -0.000, 0.000, 0.010, 0.601, -1.063},
	{0.633, 3.120, 8.000, 0.000, 0.000, 0.010, 0.633, -1.063},
	{0.665, 3.200, 8.000, 0.000, 0.000, 0.010, 0.665, -1.063},
	{0.697, 3.280, 8.000, -0.000, 0.000, 0.010, 0.697, -1.063},
	{0.731, 3.360, 8.000, 0.000, 0.000, 0.010, 0.731, -1.063},
	{0.765, 3.440, 8.000, -0.000, 0.000, 0.010, 0.765, -1.063},
	{0.801, 3.520, 8.000, -0.000, 0.000, 0.010, 0.801, -1.063},
	{0.837, 3.600, 8.000, 0.000, 0.000, 0.010, 0.837, -1.063},
	{0.873, 3.680, 8.000, -0.000, 0.000, 0.010, 0.873, -1.063},
	{0.911, 3.760, 8.000, -0.000, 0.000, 0.010, 0.911, -1.063},
	{0.949, 3.840, 8.000, 0.000, 0.000, 0.010, 0.949, -1.063},
	{0.989, 3.920, 8.000, 0.000, 0.000, 0.010, 0.989, -1.063},
	{1.029, 4.000, 8.000, 0.000, 0.000, 0.010, 1.029, -1.063},
	{1.069, 4.080, 8.000, -0.000, 0.000, 0.010, 1.069, -1.063},
	{1.111, 4.160, 8.000, 0.000, 0.000, 0.010, 1.111, -1.063},
	{1.153, 4.240, 8.000, -0.000, 0.000, 0.010, 1.153, -1.063},
	{1.197, 4.320, 8.000, 0.000, 0.000, 0.010, 1.197, -1.063},
	{1.241, 4.400, 8.000, 0.000, 0.000, 0.010, 1.241, -1.063},
	{1.285, 4.480, 8.000, -0.000, 0.000, 0.010, 1.285, -1.063},
	{1.331, 4.560, 8.000, 0.000, 0.000, 0.010, 1.331, -1.063},
	{1.377, 4.640, 8.000, -0.000, 0.000, 0.010, 1.377, -1.063},
	{1.425, 4.720, 8.000, 0.000, 0.000, 0.010, 1.425, -1.063},
	{1.473, 4.800, 8.000, 0.000, 0.000, 0.010, 1.473, -1.063},
	{1.521, 4.880, 8.000, -0.000, 0.000, 0.010, 1.521, -1.063},
	{1.571, 4.960, 8.000, 0.000, 0.000, 0.010, 1.571, -1.063},
	{1.621, 5.040, 8.000, -0.000, 0.000, 0.010, 1.621, -1.063},
	{1.673, 5.120, 8.000, 0.000, 0.000, 0.010, 1.673, -1.063},
	{1.725, 5.200, 8.000, 0.000, 0.000, 0.010, 1.725, -1.063},
	{1.777, 5.280, 8.000, -0.000, 0.000, 0.010, 1.777, -1.063},
	{1.831, 5.360, 8.000, 0.000, 0.000, 0.010, 1.831, -1.063},
	{1.885, 5.440, 8.000, -0.000, 0.000, 0.010, 1.885, -1.063},
	{1.941, 5.520, 8.000, 0.000, 0.000, 0.010, 1.941, -1.063},
	{1.997, 5.600, 8.000, -0.000, 0.000, 0.010, 1.997, -1.063},
	{2.053, 5.680, 8.000, 0.000, 0.000, 0.010, 2.053, -1.063},
	{2.111, 5.760, 8.000, -0.000, 0.000, 0.010, 2.111, -1.063},
	{2.169, 5.840, 8.000, 0.000, 0.000, 0.010, 2.169, -1.063},
	{2.229, 5.920, 8.000, 0.000, 0.000, 0.010, 2.229, -1.063},
	{2.289, 6.000, 8.000, -0.000, 0.000, 0.010, 2.289, -1.063},
	{2.349, 6.080, 8.000, 0.000, 0.000, 0.010, 2.349, -1.063},
	{2.411, 6.160, 8.000, 0.000, 0.000, 0.010, 2.411, -1.063},
	{2.473, 6.240, 8.000, 0.000, 0.000, 0.010, 2.473, -1.063},
	{2.537, 6.320, 8.000, -0.000, 0.000, 0.010, 2.537, -1.063},
	{2.601, 6.400, 8.000, 0.000, 0.000, 0.010, 2.601, -1.063},
	{2.665, 6.480, 8.000, -0.000, 0.000, 0.010, 2.665, -1.063},
	{2.731, 6.560, 8.000, 0.000, 0.000, 0.010, 2.731, -1.063},
	{2.797, 6.640, 8.000, 0.000, 0.000, 0.010, 2.797, -1.063},
	{2.865, 6.720, 8.000, 0.000, 0.000, 0.010, 2.865, -1.063},
	{2.933, 6.800, 8.000, 0.000, 0.000, 0.010, 2.933, -1.063},
	{3.001, 6.880, 8.000, -0.000, 0.000, 0.010, 3.001, -1.063},
	{3.071, 6.960, 8.000, 0.000, 0.000, 0.010, 3.071, -1.063},
	{3.141, 7.040, 8.000, -0.000, 0.000, 0.010, 3.141, -1.063},
	{3.213, 7.120, 8.000, 0.000, 0.000, 0.010, 3.213, -1.063},
	{3.285, 7.200, 8.000, -0.000, 0.000, 0.010, 3.285, -1.063},
	{3.357, 7.280, 8.000, 0.000, 0.000, 0.010, 3.357, -1.063},
	{3.431, 7.360, 8.000, -0.000, 0.000, 0.010, 3.431, -1.063},
	{3.505, 7.440, 8.000, 0.000, 0.000, 0.010, 3.505, -1.063},
	{3.581, 7.520, 8.000, 0.000, 0.000, 0.010, 3.581, -1.063},
	{3.657, 7.600, 8.000, -0.000, 0.000, 0.010, 3.657, -1.063},
	{3.733, 7.680, 8.000, 0.000, 0.000, 0.010, 3.733, -1.063},
	{3.811, 7.760, 8.000, -0.000, 0.000, 0.010, 3.811, -1.063},
	{3.889, 7.840, 8.000, 0.000, 0.000, 0.010, 3.889, -1.063},
	{3.969, 7.920, 8.000, -0.000, 0.000, 0.010, 3.969, -1.063},
	{4.049, 8.000, 8.000, 0.000, 0.000, 0.010, 4.049, -1.063},
	{4.129, 8.080, 8.000, -0.000, 0.000, 0.010, 4.129, -1.063},
	{4.211, 8.160, 8.000, 0.000, 0.000, 0.010, 4.211, -1.063},
	{4.293, 8.240, 8.000, -0.000, 0.000, 0.010, 4.293, -1.063},
	{4.377, 8.320, 8.000, 0.000, 0.000, 0.010, 4.377, -1.063},
	{4.461, 8.400, 8.000, 0.000, 0.000, 0.010, 4.461, -1.063},
	{4.545, 8.480, 8.000, -0.000, 0.000, 0.010, 4.545, -1.063},
	{4.631, 8.560, 8.000, 0.000, 0.000, 0.010, 4.631, -1.063},
	{4.717, 8.640, 8.000, -0.000, 0.000, 0.010, 4.717, -1.063},
	{4.805, 8.720, 8.000, -0.000, 0.000, 0.010, 4.805, -1.063},
	{4.893, 8.800, 8.000, 0.000, 0.000, 0.010, 4.893, -1.063},
	{4.981, 8.880, 8.000, -0.000, 0.000, 0.010, 4.981, -1.063},
	{5.071, 8.960, 8.000, 0.000, 0.000, 0.010, 5.071, -1.063},
	{5.161, 9.040, 8.000, -0.000, 0.000, 0.010, 5.161, -1.063},
	{5.253, 9.120, 8.000, 0.000, 0.000, 0.010, 5.253, -1.063},
	{5.345, 9.200, 8.000, -0.000, 0.000, 0.010, 5.345, -1.063},
	{5.437, 9.280, 8.000, 0.000, 0.000, 0.010, 5.437, -1.063},
	{5.531, 9.360, 8.000, 0.000, 0.000, 0.010, 5.531, -1.063},
	{5.625, 9.438, 7.750, -25.000, 0.000, 0.010, 5.625, -1.063},
	{5.720, 9.510, 7.250, -50.000, 0.000, 0.010, 5.720, -1.063},
	{5.816, 9.578, 6.750, -50.000, 0.000, 0.010, 5.816, -1.063},
	{5.913, 9.640, 6.250, -50.000, 0.000, 0.010, 5.913, -1.063},
	{6.010, 9.698, 5.750, -50.000, 0.000, 0.010, 6.010, -1.063},
	{6.107, 9.750, 5.250, -50.000, 0.000, 0.010, 6.107, -1.063},
	{6.205, 9.798, 4.750, -50.000, 0.000, 0.010, 6.205, -1.063},
	{6.304, 9.840, 4.250, -50.000, 0.000, 0.010, 6.304, -1.063},
	{6.402, 9.878, 3.750, -50.000, 0.000, 0.010, 6.402, -1.063},
	{6.501, 9.910, 3.250, -50.000, 0.000, 0.010, 6.501, -1.063},
	{6.601, 9.938, 2.750, -50.000, 0.000, 0.010, 6.601, -1.063},
	{6.700, 9.960, 2.250, -50.000, 0.000, 0.010, 6.700, -1.063},
	{6.800, 9.978, 1.750, -50.000, 0.000, 0.010, 6.800, -1.063},
	{6.900, 9.990, 1.250, -50.000, 0.000, 0.010, 6.900, -1.063},
	{7.000, 9.998, 0.750, -50.000, 0.000, 0.010, 7.000, -1.063},
	{7.101, 10.107, 10.989, 1023.949, 0.001, 0.010, 7.101, -1.062},
	{7.204, 10.316, 20.843, 985.318, 0.004, 0.010, 7.204, -1.062},
	{7.309, 10.517, 20.098, -74.475, 0.009, 0.010, 7.309, -1.062},
	{7.417, 10.713, 19.598, -49.984, 0.016, 0.010, 7.417, -1.060},
	{7.526, 10.906, 19.306, -29.224, 0.024, 0.010, 7.526, -1.058},
	{7.637, 11.098, 19.189, -11.672, 0.034, 0.010, 7.636, -1.055},
	{7.749, 11.290, 19.219, 2.977, 0.047, 0.010, 7.749, -1.050},
	{7.864, 11.484, 19.367, 14.842, 0.061, 0.010, 7.864, -1.044},
	{7.981, 11.680, 19.606, 23.865, 0.076, 0.010, 7.980, -1.036},
	{8.100, 11.879, 19.904, 29.816, 0.094, 0.010, 8.099, -1.026},
	{8.221, 12.081, 20.227, 32.311, 0.114, 0.010, 8.219, -1.014},
	{8.344, 12.286, 20.535, 30.823, 0.135, 0.010, 8.341, -0.998},
	{8.468, 12.494, 20.783, 24.712, 0.159, 0.010, 8.465, -0.980},
	{8.596, 12.703, 20.915, 13.274, 0.184, 0.010, 8.590, -0.959},
	{8.725, 12.912, 20.874, -4.167, 0.211, 0.010, 8.716, -0.933},
	{8.856, 13.118, 20.592, -28.151, 0.241, 0.010, 8.844, -0.904},
	{8.989, 13.318, 20.003, -58.916, 0.272, 0.010, 8.973, -0.870},
	{9.124, 13.508, 19.041, -96.212, 0.305, 0.010, 9.102, -0.832},
	{9.261, 13.685, 17.650, -139.110, 0.340, 0.010, 9.232, -0.788},
	{9.399, 13.843, 15.791, -185.862, 0.376, 0.010, 9.362, -0.740},
	{9.539, 13.977, 13.453, -233.844, 0.413, 0.010, 9.491, -0.686},
	{9.680, 14.083, 10.568, -288.506, 0.452, 0.010, 9.619, -0.627},
	{9.821, 14.152, 6.928, -363.985, 0.491, 0.010, 9.745, -0.563},
	{9.963, 14.179, 2.719, -420.911, 0.530, 0.010, 9.869, -0.493},
	{10.105, 14.163, -1.652, -437.081, 0.570, 0.010, 9.989, -0.419},
	{10.246, 14.103, -6.019, -436.703, 0.609, 0.010, 10.107, -0.341},
	{10.386, 14.001, -10.216, -419.726, 0.647, 0.010, 10.220, -0.259},
	{10.525, 13.860, -14.096, -387.942, 0.684, 0.010, 10.329, -0.173},
	{10.661, 13.684, -17.542, -344.622, 0.720, 0.010, 10.433, -0.085},
	{10.796, 13.479, -20.481, -293.900, 0.755, 0.010, 10.533, 0.006},
	{10.929, 13.251, -22.882, -240.079, 0.787, 0.010, 10.628, 0.098},
	{11.059, 13.003, -24.752, -187.017, 0.818, 0.010, 10.718, 0.192},
	{11.186, 12.742, -26.129, -137.738, 0.847, 0.010, 10.804, 0.286},
	{11.311, 12.471, -27.072, -94.262, 0.874, 0.010, 10.885, 0.381},
	{11.433, 12.195, -27.648, -57.641, 0.898, 0.010, 10.963, 0.475},
	{11.552, 11.915, -27.930, -28.127, 0.921, 0.010, 11.036, 0.569},
	{11.668, 11.635, -27.984, -5.381, 0.942, 0.010, 11.105, 0.663},
	{11.782, 11.357, -27.795, 18.835, 0.961, 0.010, 11.171, 0.755},
	{11.893, 11.085, -27.199, 59.572, 0.978, 0.010, 11.234, 0.847},
	{12.001, 10.822, -26.334, 86.562, 0.994, 0.010, 11.293, 0.937},
	{12.107, 10.568, -25.462, 87.176, 1.008, 0.010, 11.350, 1.026},
	{12.210, 10.321, -24.606, 85.567, 1.020, 0.010, 11.405, 1.113},
	{12.311, 10.084, -23.782, 82.392, 1.031, 0.010, 11.457, 1.200},
	{12.409, 9.854, -23.001, 78.172, 1.040, 0.010, 11.508, 1.284},
	{12.506, 9.631, -22.268, 73.312, 1.048, 0.010, 11.556, 1.368},
	{12.600, 9.415, -21.586, 68.117, 1.055, 0.010, 11.603, 1.449},
	{12.692, 9.206, -20.958, 62.815, 1.060, 0.010, 11.648, 1.530},
	{12.782, 9.002, -20.383, 57.570, 1.065, 0.010, 11.692, 1.608},
	{12.870, 8.803, -19.858, 52.497, 1.068, 0.010, 11.734, 1.685},
	{12.956, 8.609, -19.381, 47.676, 1.070, 0.010, 11.776, 1.761},
	{13.040, 8.420, -18.949, 43.161, 1.071, 0.010, 11.816, 1.835},
	{13.122, 8.234, -18.559, 38.986, 1.071, 0.010, 11.856, 1.907},
	{13.203, 8.052, -18.208, 35.171, 1.070, 0.010, 11.894, 1.978},
	{13.282, 7.873, -17.890, 31.728, 1.069, 0.010, 11.932, 2.047},
	{13.359, 7.697, -17.604, 28.663, 1.066, 0.010, 11.969, 2.114},
	{13.434, 7.524, -17.344, 25.980, 1.062, 0.010, 12.006, 2.180},
	{13.507, 7.353, -17.107, 23.678, 1.058, 0.010, 12.042, 2.244},
	{13.579, 7.184, -16.890, 21.758, 1.053, 0.010, 12.077, 2.306},
	{13.649, 7.017, -16.687, 20.221, 1.047, 0.010, 12.112, 2.367},
	{13.718, 6.852, -16.497, 19.066, 1.040, 0.010, 12.146, 2.427},
	{13.785, 6.689, -16.314, 18.294, 1.032, 0.010, 12.180, 2.484},
	{13.850, 6.527, -16.135, 17.906, 1.024, 0.010, 12.214, 2.540},
	{13.914, 6.368, -15.956, 17.902, 1.015, 0.010, 12.247, 2.594},
	{13.976, 6.210, -15.773, 18.280, 1.005, 0.010, 12.280, 2.647},
	{14.036, 6.054, -15.583, 19.037, 0.994, 0.010, 12.313, 2.698},
	{14.095, 5.901, -15.381, 20.164, 0.983, 0.010, 12.346, 2.747},
	{14.153, 5.749, -15.164, 21.651, 0.971, 0.010, 12.378, 2.795},
	{14.209, 5.600, -14.930, 23.481, 0.958, 0.010, 12.410, 2.841},
	{14.263, 5.453, -14.673, 25.628, 0.945, 0.010, 12.441, 2.885},
	{14.317, 5.309, -14.393, 28.061, 0.931, 0.010, 12.473, 2.928},
	{14.368, 5.168, -14.085, 30.739, 0.917, 0.010, 12.504, 2.969},
	{14.419, 5.031, -13.749, 33.611, 0.902, 0.010, 12.535, 3.009},
	{14.467, 4.897, -13.383, 36.620, 0.886, 0.010, 12.565, 3.047},
	{14.515, 4.767, -12.986, 39.696, 0.871, 0.010, 12.596, 3.084},
	{14.562, 4.641, -12.558, 42.765, 0.854, 0.010, 12.626, 3.119},
	{14.607, 4.520, -12.101, 45.744, 0.837, 0.010, 12.656, 3.153},
	{14.651, 4.404, -11.615, 48.547, 0.820, 0.010, 12.686, 3.185},
	{14.694, 4.293, -11.105, 51.090, 0.803, 0.010, 12.715, 3.216},
	{14.736, 4.187, -10.572, 53.289, 0.785, 0.010, 12.745, 3.246},
	{14.776, 4.087, -10.021, 55.067, 0.767, 0.010, 12.774, 3.275},
	{14.816, 3.993, -9.457, 56.357, 0.750, 0.010, 12.803, 3.302},
	{14.855, 3.904, -8.886, 57.104, 0.731, 0.010, 12.832, 3.329},
	{14.894, 3.821, -8.314, 57.272, 0.713, 0.010, 12.860, 3.354},
	{14.931, 3.743, -7.745, 56.840, 0.695, 0.010, 12.889, 3.378},
	{14.968, 3.671, -7.187, 55.806, 0.677, 0.010, 12.917, 3.402},
	{15.004, 3.605, -6.645, 54.189, 0.660, 0.010, 12.946, 3.424},
	{15.039, 3.544, -6.125, 52.025, 0.642, 0.010, 12.974, 3.445},
	{15.074, 3.487, -5.631, 49.364, 0.624, 0.010, 13.002, 3.466},
	{15.109, 3.436, -5.169, 46.272, 0.607, 0.010, 13.030, 3.486},
	{15.142, 3.388, -4.741, 42.823, 0.590, 0.010, 13.058, 3.505},
	{15.176, 3.345, -4.350, 39.096, 0.574, 0.010, 13.086, 3.523},
	{15.209, 3.305, -3.998, 35.173, 0.558, 0.010, 13.114, 3.541},
	{15.242, 3.268, -3.686, 31.135, 0.542, 0.010, 13.142, 3.558},
	{15.274, 3.234, -3.416, 27.060, 0.527, 0.010, 13.169, 3.575},
	{15.306, 3.202, -3.186, 23.016, 0.512, 0.010, 13.197, 3.590},
	{15.338, 3.172, -2.995, 19.067, 0.498, 0.010, 13.225, 3.606},
	{15.369, 3.143, -2.842, 15.264, 0.484, 0.010, 13.253, 3.621},
	{15.400, 3.116, -2.726, 11.651, 0.470, 0.010, 13.280, 3.635},
	{15.431, 3.090, -2.643, 8.258, 0.457, 0.010, 13.308, 3.649},
	{15.462, 3.064, -2.592, 5.109, 0.445, 0.010, 13.336, 3.662},
	{15.492, 3.038, -2.570, 2.218, 0.433, 0.010, 13.363, 3.675},
	{15.522, 3.012, -2.574, -0.408, 0.422, 0.010, 13.390, 3.687},
	{15.552, 2.986, -2.602, -2.771, 0.411, 0.010, 13.418, 3.700},
	{15.582, 2.960, -2.651, -4.874, 0.400, 0.010, 13.445, 3.711},
	{15.611, 2.933, -2.718, -6.729, 0.391, 0.010, 13.472, 3.723},
	{15.640, 2.905, -2.801, -8.347, 0.381, 0.010, 13.499, 3.733},
	{15.669, 2.876, -2.899, -9.746, 0.372, 0.010, 13.526, 3.744},
	{15.697, 2.846, -3.008, -10.940, 0.364, 0.010, 13.552, 3.754},
	{15.725, 2.814, -3.128, -11.948, 0.356, 0.010, 13.579, 3.764},
	{15.753, 2.782, -3.256, -12.788, 0.348, 0.010, 13.605, 3.774},
	{15.781, 2.748, -3.390, -13.476, 0.341, 0.010, 13.631, 3.783},
	{15.808, 2.713, -3.531, -14.029, 0.335, 0.010, 13.656, 3.792},
	{15.835, 2.676, -3.675, -14.462, 0.328, 0.010, 13.681, 3.801},
	{15.861, 2.638, -3.823, -14.791, 0.323, 0.010, 13.706, 3.809},
	{15.887, 2.598, -3.973, -15.027, 0.317, 0.010, 13.731, 3.817},
	{15.913, 2.557, -4.125, -15.184, 0.312, 0.010, 13.755, 3.825},
	{15.938, 2.514, -4.278, -15.272, 0.307, 0.010, 13.779, 3.833},
	{15.962, 2.469, -4.431, -15.301, 0.303, 0.010, 13.803, 3.840},
	{15.987, 2.424, -4.584, -15.278, 0.299, 0.010, 13.826, 3.848},
	{16.010, 2.376, -4.736, -15.211, 0.295, 0.010, 13.849, 3.855},
	{16.034, 2.327, -4.887, -15.106, 0.291, 0.010, 13.871, 3.861},
	{16.056, 2.277, -5.037, -14.969, 0.288, 0.010, 13.893, 3.868},
	{16.079, 2.225, -5.185, -14.803, 0.285, 0.010, 13.914, 3.874},
	{16.100, 2.172, -5.331, -14.612, 0.283, 0.010, 13.935, 3.880},
	{16.122, 2.117, -5.475, -14.398, 0.280, 0.010, 13.955, 3.886},
	{16.142, 2.061, -5.616, -14.165, 0.278, 0.010, 13.975, 3.892},
	{16.162, 2.003, -5.756, -13.914, 0.276, 0.010, 13.994, 3.897},
	{16.182, 1.945, -5.892, -13.645, 0.274, 0.010, 14.013, 3.902},
	{16.201, 1.884, -6.026, -13.360, 0.272, 0.010, 14.031, 3.908},
	{16.219, 1.823, -6.156, -13.060, 0.271, 0.010, 14.049, 3.912},
	{16.236, 1.760, -6.284, -12.743, 0.269, 0.010, 14.066, 3.917},
	{16.253, 1.696, -6.408, -12.411, 0.268, 0.010, 14.082, 3.922},
	{16.270, 1.631, -6.528, -12.064, 0.267, 0.010, 14.098, 3.926},
	{16.285, 1.564, -6.645, -11.701, 0.266, 0.010, 14.113, 3.930},
	{16.300, 1.496, -6.759, -11.321, 0.266, 0.010, 14.127, 3.934},
	{16.314, 1.428, -6.868, -10.925, 0.265, 0.010, 14.141, 3.938},
	{16.328, 1.358, -6.973, -10.513, 0.264, 0.010, 14.154, 3.941},
	{16.341, 1.287, -7.074, -10.083, 0.264, 0.010, 14.167, 3.945},
	{16.353, 1.216, -7.170, -9.636, 0.263, 0.010, 14.179, 3.948},
	{16.365, 1.143, -7.262, -9.172, 0.263, 0.010, 14.190, 3.951},
	{16.375, 1.070, -7.349, -8.691, 0.263, 0.010, 14.200, 3.954},
	{16.385, 0.995, -7.431, -8.193, 0.263, 0.010, 14.209, 3.956},
	{16.394, 0.920, -7.508, -7.678, 0.262, 0.010, 14.218, 3.959},
	{16.403, 0.844, -7.579, -7.146, 0.262, 0.010, 14.227, 3.961},
	{16.410, 0.768, -7.645, -6.599, 0.262, 0.010, 14.234, 3.963},
	{16.417, 0.691, -7.705, -6.037, 0.262, 0.010, 14.241, 3.964},
	{16.424, 0.614, -7.698, 0.723, 0.262, 0.010, 14.247, 3.966},
	{16.429, 0.539, -7.437, 26.155, 0.262, 0.010, 14.252, 3.967},
	{16.434, 0.470, -6.981, 45.573, 0.262, 0.010, 14.256, 3.969},
	{16.438, 0.405, -6.517, 46.395, 0.262, 0.010, 14.260, 3.970},
	{16.441, 0.344, -6.046, 47.112, 0.262, 0.010, 14.264, 3.971},
	{16.444, 0.288, -5.568, 47.729, 0.262, 0.010, 14.266, 3.971},
	{16.446, 0.238, -5.086, 48.254, 0.262, 0.010, 14.269, 3.972},
	{16.448, 0.192, -4.599, 48.692, 0.262, 0.010, 14.270, 3.972},
	{16.450, 0.150, -4.109, 49.050, 0.262, 0.010, 14.272, 3.973},
	{16.451, 0.114, -3.615, 49.337, 0.262, 0.010, 14.273, 3.973},
	{16.452, 0.083, -3.120, 49.559, 0.262, 0.010, 14.274, 3.973},
	{16.452, 0.057, -2.622, 49.725, 0.262, 0.010, 14.274, 3.974},
	{16.453, 0.036, -2.124, 49.843, 0.262, 0.010, 14.275, 3.974},
	{16.453, 0.019, -1.625, 49.921, 0.262, 0.010, 14.275, 3.974},
	{16.453, 0.008, -1.125, 49.967, 0.262, 0.010, 14.275, 3.974},
	{16.453, 0.002, -0.625, 49.990, 0.262, 0.010, 14.275, 3.974},
	{16.453, 0.000, -0.188, 43.753, 0.262, 0.010, 14.275, 3.974}
};